﻿{
  "ProviderId": "Microsoft.VisualStudio.ConnectedService.Wcf",
  "Version": "15.0.40203.910",
  "GettingStartedDocument": {
    "Uri": "https://go.microsoft.com/fwlink/?linkid=858517"
  },
  "ExtendedData": {
    "inputs": [
      "http://app9.susalud.gob.pe:8080/ws-consulta-afiliados/services/consulta-afiliados.wsdl"
    ],
    "collectionTypes": [
      "System.Array",
      "System.Collections.Generic.Dictionary`2"
    ],
    "namespaceMappings": [
      "*, SuSaludServ"
    ],
    "targetFramework": "netcoreapp3.1",
    "typeReuseMode": "All"
  }
}