<?xml version="1.0" encoding="UTF-8"?>
<!DOCTYPE svg PUBLIC "-//W3C//DTD SVG 1.1//EN" "http://www.w3.org/Graphics/SVG/1.1/DTD/svg11.dtd">
<!-- Creator: CorelDRAW 2019 (64-Bit) -->
<svg xmlns="http://www.w3.org/2000/svg" xml:space="preserve" width="150px" height="52px" version="1.1" style="shape-rendering:geometricPrecision; text-rendering:geometricPrecision; image-rendering:optimizeQuality; fill-rule:evenodd; clip-rule:evenodd"
viewBox="0 0 3.75 1.3"
 xmlns:xlink="http://www.w3.org/1999/xlink">
 <defs>
  <style type="text/css">
   <![CDATA[
    .fil0 {fill:white}
    .fil1 {fill:white;fill-rule:nonzero}
   ]]>
  </style>
 </defs>
 <g id="Capa_x0020_1">
  <metadata id="CorelCorpID_0Corel-Layer"/>
  <g id="_2042716748064">
   <path class="fil0" d="M1.63 1.04l-0.06 0 0 0.26 0.16 0 0 -0.05 -0.1 0 0 -0.21zm0.28 0l-0.06 0 -0.1 0.26 0.05 0 0.03 -0.06 0.1 0 0.02 0.06 0.06 0 -0.1 -0.26zm0 0.15l-0.06 0 0.03 -0.09 0.03 0.09zm0.22 -0.04c-0.03,-0.01 -0.05,-0.02 -0.05,-0.04 0,-0.03 0.03,-0.03 0.04,-0.03 0.02,0 0.04,0 0.05,0.01l0.01 0 0 -0.04 0 0c-0.02,-0.01 -0.04,-0.01 -0.06,-0.01 -0.06,0 -0.1,0.03 -0.1,0.08 0,0.04 0.04,0.06 0.07,0.07 0.03,0.01 0.05,0.02 0.05,0.03 0,0.03 -0.03,0.04 -0.05,0.04 -0.01,0 -0.03,-0.01 -0.05,-0.02l0 0 -0.01 0.05 0.01 0c0.02,0.01 0.03,0.01 0.06,0.01 0.06,0 0.1,-0.03 0.1,-0.08 0,-0.05 -0.04,-0.06 -0.07,-0.07zm0.31 0.01c0.03,0 0.04,-0.02 0.04,-0.05 0,-0.06 -0.05,-0.07 -0.08,-0.07l-0.1 0 0 0.26 0.1 0c0.03,0 0.09,-0.01 0.09,-0.08 0,-0.03 -0.02,-0.05 -0.05,-0.06zm-0.06 -0.02l-0.02 0 0 -0.05 0.02 0c0.02,0 0.05,0 0.05,0.03 0,0.01 -0.02,0.02 -0.05,0.02zm-0.02 0.04l0.02 0c0.03,0 0.05,0.01 0.05,0.04 0,0.02 -0.01,0.03 -0.05,0.03l-0.02 0 0 -0.07zm0.3 -0.14l-0.07 0 -0.1 0.26 0.06 0 0.02 -0.06 0.1 0 0.03 0.06 0.06 0 -0.1 -0.26zm0 0.15l-0.07 0 0.03 -0.09 0.04 0.09zm0.27 0.04l-0.06 -0.19 -0.09 0 0 0.26 0.05 0 0 -0.2 0.07 0.19 0 0.01 0.05 0 0.07 -0.2 0 0.2 0.06 0 0 -0.26 -0.09 0 -0.06 0.19zm0.31 -0.07c0.03,0 0.05,-0.02 0.05,-0.05 0,-0.06 -0.06,-0.07 -0.09,-0.07l-0.09 0 0 0.26 0.09 0c0.03,0 0.09,-0.01 0.09,-0.08 0,-0.03 -0.02,-0.05 -0.05,-0.06zm-0.06 -0.02l-0.02 0 0 -0.05 0.02 0c0.03,0 0.05,0 0.05,0.03 0,0.01 -0.01,0.02 -0.05,0.02zm-0.02 0.04l0.03 0c0.02,0 0.05,0.01 0.05,0.04 0,0.02 -0.02,0.03 -0.05,0.03l-0.03 0 0 -0.07zm0.3 -0.14l-0.06 0 -0.1 0.26 0.06 0 0.02 -0.06 0.1 0 0.02 0.06 0.06 0 -0.1 -0.26zm0.01 0.15l-0.07 0 0.03 -0.09 0.04 0.09zm0.21 -0.04c-0.03,-0.01 -0.05,-0.02 -0.05,-0.04 0,-0.03 0.03,-0.03 0.04,-0.03 0.02,0 0.04,0 0.06,0.01l0 0 0 -0.04 0 0c-0.02,-0.01 -0.04,-0.01 -0.06,-0.01 -0.06,0 -0.1,0.03 -0.1,0.08 0,0.04 0.04,0.06 0.08,0.07 0.02,0.01 0.04,0.02 0.04,0.03 0,0.03 -0.03,0.04 -0.04,0.04 -0.02,0 -0.04,-0.01 -0.06,-0.02l0 0 -0.01 0.05 0.01 0c0.02,0.01 0.03,0.01 0.06,0.01 0.06,0 0.1,-0.03 0.1,-0.08 0,-0.05 -0.04,-0.06 -0.07,-0.07z"/>
   <path class="fil0" d="M2.38 0c-0.21,0 -0.35,0.37 -0.4,0.72l0 0.03c0,0 0.04,0 0.08,0l0.01 -0.01c0.07,-0.25 0.16,-0.46 0.33,-0.47 0.17,-0.02 0.3,0.27 0.35,0.42 0.03,0 0.06,-0.02 0.06,-0.04 -0.06,-0.24 -0.18,-0.65 -0.43,-0.65z"/>
   <path class="fil0" d="M2.04 0.32c0,0 0.01,-0.03 0.02,-0.04 0.01,-0.04 0.02,-0.06 0.04,-0.09 0.01,-0.02 0.02,-0.03 0.03,-0.05 -0.02,0 -0.05,0 -0.05,0 -0.16,0 -0.28,0.32 -0.32,0.61l0.08 0c0.05,-0.15 0.13,-0.37 0.2,-0.43z"/>
   <path class="fil0" d="M2.86 0.59c0.79,0.44 -1.35,0.36 -0.94,0.16 -0.19,0.17 1.18,0.16 0.94,-0.16z"/>
   <path class="fil0" d="M1.8 0.41c0.02,-0.06 0.03,-0.08 0.05,-0.11 0,-0.01 0.01,-0.03 0.02,-0.04 -0.02,0 -0.04,0 -0.04,0 -0.13,0 -0.22,0.26 -0.26,0.49l0.07 0c0.04,-0.12 0.11,-0.3 0.16,-0.34z"/>
   <polygon class="fil0" points="0,0.91 0.13,0.19 0.48,0.19 0.61,0.66 0.63,0.56 0.56,0.25 0.61,0.25 0.67,0.45 0.74,0.19 1.09,0.19 1.23,0.91 0.94,0.91 0.91,0.82 0.89,0.91 0.83,0.91 0.88,0.7 0.86,0.62 0.77,0.91 0.46,0.91 0.43,0.83 0.42,0.91 0.36,0.91 0.4,0.71 0.36,0.62 0.31,0.91 "/>
   <polygon class="fil0" points="1.28,0.91 1.33,0.91 1.21,0.25 1.16,0.25 "/>
   <path class="fil1" d="M0.18 1.3l-0.09 -0.24 0 0c0.01,0.04 0.01,0.07 0.01,0.09l0 0.15 -0.1 0 0 -0.33 0.15 0 0.08 0.23 0 0 0.09 -0.23 0.15 0 0 0.33 -0.11 0 0 -0.15c0,-0.01 0,-0.02 0,-0.02 0.01,-0.01 0.01,-0.04 0.01,-0.07l0 0 -0.09 0.24 -0.1 0zm0.49 0l-0.09 -0.24 0 0c0.01,0.04 0.01,0.07 0.01,0.09l0 0.15 -0.1 0 0 -0.33 0.15 0 0.08 0.23 0 0 0.09 -0.23 0.15 0 0 0.33 -0.11 0 0 -0.15c0,-0.01 0,-0.02 0,-0.02 0.01,-0.01 0.01,-0.04 0.01,-0.07l0 0 -0.09 0.24 -0.1 0zm0.47 -0.2l0.18 0 0 0.18c-0.05,0.01 -0.1,0.02 -0.16,0.02 -0.06,0 -0.11,-0.01 -0.14,-0.04 -0.04,-0.03 -0.06,-0.08 -0.06,-0.13 0,-0.05 0.02,-0.1 0.06,-0.12 0.04,-0.03 0.09,-0.05 0.16,-0.05 0.03,0 0.05,0 0.07,0.01 0.03,0 0.05,0.01 0.06,0.01l-0.03 0.07c-0.03,-0.01 -0.06,-0.02 -0.1,-0.02 -0.03,0 -0.06,0.01 -0.07,0.03 -0.02,0.02 -0.03,0.04 -0.03,0.07 0,0.03 0.01,0.06 0.02,0.07 0.02,0.02 0.04,0.03 0.07,0.03 0.02,0 0.03,0 0.05,-0.01l0 -0.05 -0.08 0 0 -0.07z"/>
  </g>
 </g>
</svg>
